{
  "info" : {
    "version" : 1,
    "author" : "xcode"
  },
  "colors" : [
    {
      "idiom" : "universal",
      "color" : {
        "color-space" : "srgb",
        "components" : {
          "red" : "0.420",
          "alpha" : "0.080",
          "blue" : "0.410",
          "green" : "0.430"
        }
      }
    }
  ]
}